{
  "info": {
    "name": "message"
  },
  "options": {
    "increments": true,
    "timestamps": true
  },
  "attributes": {
    "name": {
      "type": "string"
    },
    "phone": {
      "type": "string"
    },
    "email": {
      "type": "string"
    },
    "comment": {
      "type": "text"
    }
  },
  "connection": "default",
  "collectionName": "messages"
}
