{
  "connection": "default",
  "collectionName": "articles",
  "info": {
    "name": "article"
  },
  "options": {
    "increments": true,
    "timestamps": true
  },
  "attributes": {
    "title": {
      "type": "string"
    },
    "cover": {
      "model": "file",
      "via": "related",
      "plugin": "upload",
      "required": false
    },
    "content": {
      "type": "richtext"
    },
    "excerpt": {
      "type": "text"
    },
    "showOnHomePage": {
      "type": "boolean",
      "default": false
    },
    "slug": {
      "type": "string"
    }
  }
}
